<?xml version="1.0" encoding="utf-8"?>
<!-- Generator: Adobe Illustrator 15.0.2, SVG Export Plug-In  -->
<!DOCTYPE svg PUBLIC "-//W3C//DTD SVG 1.1//EN" "http://www.w3.org/Graphics/SVG/1.1/DTD/svg11.dtd" [
	<!ENTITY ns_flows "http://ns.adobe.com/Flows/1.0/">
]>
<svg version="1.1"
	 xmlns="http://www.w3.org/2000/svg" xmlns:xlink="http://www.w3.org/1999/xlink" xmlns:a="http://ns.adobe.com/AdobeSVGViewerExtensions/3.0/"
	 x="0px" y="0px" width="165px" height="40px" viewBox="0 0 165 40" overflow="visible" enable-background="new 0 0 165 40"
	 xml:space="preserve">
<defs>
</defs>
<path fill="#FFFFFF" d="M164.104,35.277c0,2.117-1.713,3.83-3.834,3.83H4.729c-2.119,0-3.839-1.713-3.839-3.83V4.725
	c0-2.115,1.721-3.835,3.839-3.835h155.54c2.121,0,3.834,1.72,3.834,3.835V35.277z"/>
<path fill="#A6A6A6" d="M160.27,40H4.729C2.122,40,0,37.883,0,35.278V4.726C0,2.12,2.122,0,4.729,0h155.54
	c2.605,0,4.73,2.12,4.73,4.726v30.553C165,37.883,162.875,40,160.27,40L160.27,40z"/>
<path d="M164.104,35.277c0,2.117-1.713,3.83-3.834,3.83H4.729c-2.119,0-3.839-1.713-3.839-3.83V4.725
	c0-2.115,1.721-3.835,3.839-3.835h155.54c2.121,0,3.834,1.72,3.834,3.835V35.277z"/>
<path fill="#FFFFFF" d="M30.497,19.763c-0.03-3.223,2.695-4.792,2.819-4.864c-1.543-2.204-3.935-2.506-4.774-2.529
	c-2.01-0.206-3.958,1.178-4.981,1.178c-1.043,0-2.62-1.157-4.317-1.122c-2.185,0.033-4.23,1.271-5.352,3.195
	c-2.314,3.923-0.588,9.69,1.628,12.859c1.109,1.555,2.405,3.287,4.101,3.226c1.66-0.066,2.279-1.035,4.283-1.035
	c1.984,0,2.566,1.035,4.296,0.996c1.78-0.027,2.903-1.559,3.973-3.127c1.282-1.78,1.796-3.532,1.817-3.623
	C33.948,24.902,30.532,23.627,30.497,19.763z"/>
<path fill="#FFFFFF" d="M27.229,10.285c0.892-1.094,1.502-2.58,1.333-4.089C27.27,6.251,25.654,7.07,24.724,8.14
	c-0.823,0.941-1.558,2.486-1.368,3.938C24.807,12.184,26.297,11.361,27.229,10.285z"/>
<linearGradient id="SVGID_1_" gradientUnits="userSpaceOnUse" x1="123.793" y1="40.1094" x2="123.793" y2="4.0528">
	<stop  offset="0" style="stop-color:#1A1A1A;stop-opacity:0.1"/>
	<stop  offset="0.1235" style="stop-color:#212121;stop-opacity:0.1506"/>
	<stop  offset="0.3085" style="stop-color:#353535;stop-opacity:0.2265"/>
	<stop  offset="0.5321" style="stop-color:#575757;stop-opacity:0.3181"/>
	<stop  offset="0.7834" style="stop-color:#858585;stop-opacity:0.4212"/>
	<stop  offset="1" style="stop-color:#B3B3B3;stop-opacity:0.51"/>
</linearGradient>
<path fill="url(#SVGID_1_)" d="M160.27,0H82.585l26.323,40h51.361c2.605,0,4.73-2.117,4.73-4.722V4.726C165,2.12,162.875,0,160.27,0
	z"/>
<g>
	<path fill="#FFFFFF" d="M55.653,31.496h-1.96l-0.262-5.264c-0.125-2.377-0.18-4.145-0.168-5.301h-0.056
		c-0.398,1.481-0.89,3.067-1.475,4.76l-1.96,5.693h-1.531l-1.792-5.6c-0.535-1.693-0.971-3.311-1.307-4.854h-0.038
		c-0.062,1.891-0.137,3.69-0.224,5.395l-0.299,5.17h-1.885l0.84-12.582h2.595l1.811,5.451c0.448,1.344,0.84,2.789,1.176,4.332h0.056
		c0.398-1.605,0.821-3.049,1.269-4.332l1.886-5.451h2.595L55.653,31.496z"/>
	<path fill="#FFFFFF" d="M64.501,31.496h-1.811l-0.149-1.045h-0.056c-0.623,0.834-1.506,1.25-2.651,1.25
		c-0.858,0-1.549-0.273-2.072-0.82c-0.473-0.498-0.709-1.113-0.709-1.848c0-1.107,0.463-1.955,1.391-2.539
		c0.927-0.586,2.231-0.871,3.911-0.859v-0.168c0-1.195-0.628-1.791-1.885-1.791c-0.896,0-1.687,0.223-2.371,0.672l-0.411-1.326
		c0.846-0.523,1.885-0.783,3.117-0.783c2.377,0,3.565,1.25,3.565,3.752v3.342C64.371,30.24,64.414,30.961,64.501,31.496z
		 M62.411,28.379v-1.4c-2.228-0.037-3.341,0.572-3.341,1.83c0,0.473,0.13,0.828,0.39,1.064s0.588,0.354,0.984,0.354
		c0.445,0,0.857-0.139,1.234-0.42c0.377-0.279,0.609-0.637,0.696-1.072C62.398,28.635,62.411,28.516,62.411,28.379z"/>
	<path fill="#FFFFFF" d="M72.976,22.666l-0.392,1.531c-0.51-0.248-1.095-0.373-1.755-0.373c-0.884,0-1.583,0.295-2.1,0.887
		s-0.774,1.342-0.774,2.25c0,0.957,0.271,1.717,0.812,2.277c0.541,0.559,1.229,0.84,2.062,0.84c0.622,0,1.232-0.125,1.83-0.373
		l0.28,1.512c-0.66,0.311-1.493,0.467-2.501,0.467c-1.381,0-2.482-0.42-3.304-1.26c-0.822-0.84-1.232-1.963-1.232-3.369
		s0.442-2.561,1.326-3.463c0.883-0.902,2.072-1.354,3.565-1.354C71.638,22.238,72.366,22.381,72.976,22.666z"/>
	<path fill="#FFFFFF" d="M87.891,31.496h-2.146l-1.176-3.695H80.48l-1.12,3.695h-2.091l4.051-12.582h2.501L87.891,31.496z
		 M84.213,26.252l-1.063-3.287c-0.112-0.336-0.324-1.125-0.635-2.37h-0.037c-0.125,0.536-0.324,1.325-0.598,2.37l-1.045,3.287
		H84.213z"/>
	<path fill="#FFFFFF" d="M98.287,26.848c0,1.545-0.418,2.764-1.258,3.66c-0.75,0.797-1.682,1.193-2.797,1.193
		c-1.201,0-2.064-0.428-2.59-1.287v4.76h-2.016v-9.768c0-0.969-0.025-1.963-0.076-2.982h1.773l0.113,1.438h0.037
		c0.672-1.082,1.691-1.623,3.061-1.623c1.07,0,1.963,0.422,2.68,1.27C97.93,24.354,98.287,25.467,98.287,26.848z M96.234,26.924
		c0-0.885-0.199-1.611-0.598-2.186c-0.436-0.596-1.02-0.895-1.754-0.895c-0.498,0-0.949,0.164-1.354,0.494s-0.67,0.762-0.793,1.297
		c-0.062,0.25-0.094,0.455-0.094,0.617v1.512c0,0.66,0.201,1.217,0.607,1.67c0.404,0.455,0.93,0.682,1.576,0.682
		c0.76,0,1.35-0.293,1.773-0.877C96.023,28.652,96.234,27.881,96.234,26.924z"/>
	<path fill="#FFFFFF" d="M108.723,26.848c0,1.545-0.418,2.764-1.258,3.66c-0.75,0.797-1.682,1.193-2.797,1.193
		c-1.201,0-2.064-0.428-2.59-1.287v4.76h-2.016v-9.768c0-0.969-0.025-1.963-0.076-2.982h1.773l0.113,1.438h0.037
		c0.672-1.082,1.691-1.623,3.061-1.623c1.07,0,1.963,0.422,2.68,1.27C108.365,24.354,108.723,25.467,108.723,26.848z M106.67,26.924
		c0-0.885-0.199-1.611-0.598-2.186c-0.436-0.596-1.02-0.895-1.754-0.895c-0.498,0-0.949,0.164-1.354,0.494s-0.67,0.762-0.793,1.297
		c-0.062,0.25-0.094,0.455-0.094,0.617v1.512c0,0.66,0.201,1.217,0.607,1.67c0.404,0.455,0.93,0.682,1.576,0.682
		c0.76,0,1.35-0.293,1.773-0.877C106.459,28.652,106.67,27.881,106.67,26.924z"/>
	<path fill="#FFFFFF" d="M120.391,27.969c0,1.07-0.373,1.941-1.117,2.613c-0.82,0.734-1.963,1.102-3.428,1.102
		c-1.354,0-2.439-0.262-3.258-0.785l0.467-1.68c0.883,0.523,1.854,0.785,2.912,0.785c0.758,0,1.35-0.172,1.771-0.514
		c0.424-0.342,0.635-0.801,0.635-1.373c0-0.51-0.174-0.939-0.521-1.287c-0.35-0.348-0.928-0.672-1.736-0.971
		c-2.203-0.822-3.305-2.023-3.305-3.604c0-1.033,0.389-1.878,1.168-2.539c0.777-0.659,1.807-0.989,3.088-0.989
		c1.146,0,2.098,0.199,2.857,0.598l-0.506,1.643c-0.713-0.386-1.518-0.579-2.418-0.579c-0.711,0-1.268,0.175-1.668,0.523
		c-0.336,0.31-0.506,0.691-0.506,1.138c0,0.498,0.193,0.908,0.58,1.232c0.336,0.299,0.945,0.623,1.828,0.971
		c1.084,0.436,1.879,0.945,2.391,1.531C120.135,26.369,120.391,27.098,120.391,27.969z"/>
	<path fill="#FFFFFF" d="M127.072,23.936h-2.221v4.406c0,1.119,0.393,1.68,1.176,1.68c0.361,0,0.66-0.031,0.896-0.094l0.057,1.531
		c-0.398,0.15-0.922,0.225-1.568,0.225c-0.797,0-1.42-0.242-1.867-0.729c-0.447-0.484-0.672-1.301-0.672-2.445v-4.574h-1.326v-1.512
		h1.326v-1.661l1.979-0.598v2.258h2.221V23.936z"/>
	<path fill="#FFFFFF" d="M137.078,26.885c0,1.395-0.398,2.539-1.193,3.436c-0.834,0.922-1.941,1.381-3.324,1.381
		c-1.332,0-2.393-0.441-3.182-1.324c-0.791-0.885-1.186-1.998-1.186-3.342c0-1.406,0.406-2.557,1.223-3.453
		c0.814-0.896,1.914-1.344,3.295-1.344c1.332,0,2.4,0.441,3.211,1.324C136.693,24.422,137.078,25.529,137.078,26.885z
		 M134.988,26.932c0-0.83-0.182-1.545-0.541-2.141c-0.424-0.719-1.027-1.078-1.811-1.078c-0.811,0-1.426,0.359-1.85,1.078
		c-0.361,0.596-0.541,1.322-0.541,2.18c0,0.83,0.18,1.545,0.541,2.141c0.436,0.719,1.047,1.078,1.83,1.078
		c0.771,0,1.375-0.365,1.811-1.098C134.801,28.484,134.988,27.764,134.988,26.932z"/>
	<path fill="#FFFFFF" d="M143.631,24.197c-0.199-0.037-0.41-0.055-0.635-0.055c-0.709,0-1.258,0.268-1.643,0.801
		c-0.336,0.475-0.504,1.072-0.504,1.793v4.76h-2.016v-6.215c0-1.047-0.02-1.998-0.057-2.857h1.754l0.076,1.736h0.055
		c0.213-0.598,0.549-1.076,1.008-1.438c0.449-0.322,0.934-0.484,1.457-0.484c0.188,0,0.355,0.012,0.504,0.037V24.197z"/>
	<path fill="#FFFFFF" d="M152.646,26.531c0,0.361-0.025,0.666-0.074,0.914h-6.049c0.025,0.896,0.318,1.58,0.879,2.055
		c0.51,0.422,1.168,0.635,1.979,0.635c0.895,0,1.711-0.145,2.445-0.43l0.316,1.4c-0.857,0.373-1.873,0.559-3.043,0.559
		c-1.406,0-2.51-0.412-3.312-1.24s-1.205-1.939-1.205-3.332c0-1.369,0.373-2.508,1.121-3.416c0.783-0.971,1.842-1.457,3.174-1.457
		c1.307,0,2.295,0.486,2.967,1.457C152.379,24.447,152.646,25.398,152.646,26.531z M150.725,26.008
		c0.012-0.598-0.119-1.113-0.393-1.549c-0.348-0.561-0.883-0.84-1.605-0.84c-0.66,0-1.195,0.273-1.605,0.82
		c-0.336,0.438-0.535,0.959-0.598,1.568H150.725z"/>
</g>
<g>
	<g>
		<path fill="#FFFFFF" d="M47.73,7.775h-1.873v5.658H44.8V7.775h-1.863V6.892h4.794V7.775z"/>
		<path fill="#FFFFFF" d="M50.974,13.433l-0.077-0.543h-0.029c-0.32,0.437-0.786,0.65-1.378,0.65c-0.845,0-1.446-0.592-1.446-1.388
			c0-1.164,1.009-1.766,2.756-1.766v-0.087c0-0.621-0.33-0.932-0.979-0.932c-0.467,0-0.874,0.117-1.233,0.35l-0.213-0.689
			c0.437-0.272,0.979-0.408,1.62-0.408c1.232,0,1.854,0.65,1.854,1.951v1.737c0,0.476,0.02,0.845,0.068,1.126H50.974z
			 M50.828,11.084c-1.165,0-1.747,0.282-1.747,0.951c0,0.495,0.301,0.737,0.719,0.737c0.533,0,1.028-0.407,1.028-0.96V11.084z
			 M49.731,8.173c0.116-0.446,0.544-0.573,0.544-0.932c0-0.194-0.146-0.32-0.32-0.32c-0.204,0-0.35,0.165-0.456,0.33L49.13,7.028
			c0.185-0.378,0.505-0.689,1.019-0.689c0.485,0,0.864,0.32,0.864,0.767c0,0.572-0.524,0.737-0.747,1.193L49.731,8.173z"/>
		<path fill="#FFFFFF" d="M53.884,7.94c-0.35,0-0.621-0.272-0.621-0.631s0.281-0.621,0.64-0.621c0.359,0,0.65,0.262,0.641,0.621
			C54.543,7.688,54.271,7.94,53.884,7.94z M54.427,13.433h-1.048V8.717h1.048V13.433z"/>
		<path fill="#FFFFFF" d="M62.508,8.717l-1.785,4.716h-1.02l-1.728-4.716h1.126l0.806,2.494c0.136,0.417,0.252,0.815,0.34,1.193
			h0.028c0.078-0.339,0.194-0.737,0.34-1.193l0.796-2.494H62.508z"/>
		<path fill="#FFFFFF" d="M67.247,11.327h-3.145c0.02,0.893,0.611,1.397,1.485,1.397c0.466,0,0.893-0.078,1.271-0.223l0.165,0.728
			c-0.446,0.194-0.97,0.291-1.581,0.291c-1.476,0-2.349-0.932-2.349-2.377c0-1.446,0.893-2.533,2.231-2.533
			c1.204,0,1.961,0.893,1.961,2.242C67.286,11.036,67.276,11.201,67.247,11.327z M65.675,6.727l0.845,1.417h-0.738l-0.476-0.893
			h-0.019l-0.476,0.893h-0.719l0.825-1.417H65.675z M66.286,10.58c0-0.728-0.368-1.242-1.038-1.242
			c-0.602,0-1.077,0.524-1.146,1.242H66.286z M66.567,5.883l0.631,1.339h-0.572l-0.941-1.339H66.567z"/>
		<path fill="#FFFFFF" d="M73.424,9.504H72.27v2.29c0,0.582,0.203,0.873,0.611,0.873c0.188,0,0.343-0.016,0.465-0.049l0.029,0.795
			c-0.207,0.078-0.479,0.117-0.814,0.117c-0.414,0-0.737-0.126-0.97-0.378c-0.233-0.252-0.35-0.676-0.35-1.271V9.504h-0.688V8.719
			h0.688V7.855l1.028-0.31v1.173h1.154V9.504z"/>
		<path fill="#FFFFFF" d="M77.109,9.641c-0.104-0.02-0.213-0.029-0.33-0.029c-0.368,0-0.652,0.139-0.854,0.417
			c-0.174,0.246-0.262,0.556-0.262,0.931v2.474h-1.048v-3.23c0-0.543-0.01-1.038-0.028-1.484h0.911l0.039,0.902h0.029
			c0.109-0.311,0.284-0.56,0.523-0.747c0.233-0.168,0.485-0.252,0.757-0.252c0.097,0,0.185,0.006,0.262,0.019V9.641z"/>
		<path fill="#FFFFFF" d="M82.063,10.853c0,0.188-0.014,0.346-0.039,0.475h-3.143c0.013,0.466,0.164,0.821,0.455,1.067
			c0.266,0.22,0.608,0.33,1.028,0.33c0.466,0,0.89-0.074,1.271-0.223l0.164,0.728c-0.446,0.194-0.973,0.291-1.581,0.291
			c-0.73,0-1.305-0.215-1.722-0.645s-0.625-1.007-0.625-1.731c0-0.711,0.193-1.303,0.582-1.775c0.407-0.504,0.956-0.756,1.648-0.756
			c0.679,0,1.193,0.252,1.542,0.756C81.924,9.77,82.063,10.265,82.063,10.853z M81.336,8.146h-0.728l-0.534-0.873h-0.02
			l-0.523,0.873h-0.718l0.922-1.406h0.669L81.336,8.146z M81.063,10.582c0.007-0.311-0.062-0.579-0.203-0.805
			c-0.182-0.291-0.459-0.437-0.834-0.437c-0.343,0-0.621,0.142-0.835,0.427c-0.174,0.227-0.277,0.498-0.31,0.815H81.063z"/>
		<path fill="#FFFFFF" d="M87.398,13.433h-1.048v-2.707c0-0.834-0.316-1.251-0.95-1.251c-0.311,0-0.562,0.115-0.757,0.344
			s-0.291,0.5-0.291,0.81v2.803h-1.048v-3.366c0-0.414-0.013-0.863-0.038-1.349h0.921l0.049,0.728h0.029
			c0.122-0.226,0.304-0.414,0.543-0.562c0.284-0.175,0.602-0.262,0.95-0.262c0.44,0,0.806,0.142,1.097,0.427
			c0.362,0.349,0.543,0.87,0.543,1.562V13.433z"/>
	</g>
</g>
<g display="none">
	<path display="inline" fill="#FFFFFF" d="M48.469,7.08l-0.233,0.844c-0.362-0.168-0.776-0.252-1.241-0.252
		c-0.705,0-1.265,0.213-1.678,0.64c-0.44,0.446-0.66,1.071-0.66,1.873c0,0.77,0.204,1.372,0.611,1.809
		c0.407,0.437,0.973,0.654,1.697,0.654c0.511,0,0.941-0.08,1.29-0.242l0.185,0.834c-0.388,0.188-0.941,0.281-1.659,0.281
		c-0.983,0-1.762-0.287-2.338-0.863c-0.595-0.595-0.893-1.402-0.893-2.425c0-1.048,0.323-1.888,0.97-2.522
		c0.627-0.607,1.438-0.912,2.435-0.912C47.616,6.798,48.12,6.892,48.469,7.08z"/>
	<path display="inline" fill="#FFFFFF" d="M53.868,11.038c0,0.724-0.207,1.318-0.621,1.784c-0.434,0.479-1.009,0.718-1.727,0.718
		c-0.692,0-1.243-0.229-1.654-0.688c-0.411-0.459-0.616-1.038-0.616-1.736c0-0.73,0.212-1.329,0.635-1.795
		c0.424-0.465,0.995-0.698,1.712-0.698c0.692,0,1.248,0.229,1.668,0.689C53.668,9.756,53.868,10.333,53.868,11.038z M52.782,11.066
		c0-0.433-0.094-0.805-0.281-1.115c-0.22-0.375-0.533-0.562-0.941-0.562c-0.42,0-0.74,0.188-0.96,0.562
		c-0.188,0.311-0.281,0.688-0.281,1.135c0,0.434,0.094,0.806,0.281,1.116c0.227,0.375,0.543,0.562,0.951,0.562
		c0.401,0,0.715-0.191,0.941-0.572C52.685,11.875,52.782,11.5,52.782,11.066z M52.927,6.74l-1.174,1.406h-0.727L51.86,6.74H52.927z"
		/>
	<path display="inline" fill="#FFFFFF" d="M60.028,9.504h-1.154v2.289c0,0.582,0.204,0.873,0.611,0.873
		c0.188,0,0.343-0.016,0.466-0.048l0.029,0.795c-0.207,0.078-0.479,0.116-0.814,0.116c-0.414,0-0.737-0.126-0.97-0.378
		s-0.349-0.676-0.349-1.271V9.504h-0.688V8.719h0.688V7.855l1.028-0.31v1.174h1.154V9.504z"/>
	<path display="inline" fill="#FFFFFF" d="M63.713,9.64c-0.104-0.02-0.213-0.029-0.33-0.029c-0.369,0-0.653,0.14-0.854,0.418
		c-0.175,0.245-0.262,0.556-0.262,0.931v2.474h-1.047v-3.23c0-0.543-0.01-1.037-0.029-1.483h0.912l0.039,0.901h0.029
		c0.11-0.31,0.284-0.559,0.523-0.746c0.233-0.169,0.485-0.253,0.757-0.253c0.097,0,0.184,0.007,0.262,0.02V9.64z"/>
	<path display="inline" fill="#FFFFFF" d="M68.667,10.853c0,0.188-0.013,0.346-0.039,0.476h-3.143
		c0.013,0.465,0.165,0.821,0.456,1.066c0.265,0.22,0.608,0.33,1.028,0.33c0.465,0,0.889-0.074,1.271-0.224l0.165,0.728
		c-0.446,0.194-0.974,0.291-1.581,0.291c-0.731,0-1.305-0.215-1.722-0.645c-0.417-0.43-0.625-1.007-0.625-1.731
		c0-0.711,0.194-1.303,0.582-1.775c0.407-0.504,0.957-0.757,1.649-0.757c0.679,0,1.193,0.253,1.542,0.757
		C68.528,9.77,68.667,10.264,68.667,10.853z M67.939,8.146h-0.728l-0.533-0.873h-0.02l-0.524,0.873h-0.718l0.921-1.406h0.669
		L67.939,8.146z M67.668,10.582c0.006-0.311-0.062-0.579-0.204-0.806c-0.181-0.291-0.459-0.437-0.834-0.437
		c-0.343,0-0.621,0.143-0.834,0.427c-0.175,0.227-0.278,0.498-0.311,0.815H67.668z"/>
	<path display="inline" fill="#FFFFFF" d="M74.002,13.433h-1.047v-2.706c0-0.834-0.317-1.252-0.951-1.252
		c-0.311,0-0.563,0.115-0.757,0.345s-0.291,0.5-0.291,0.81v2.804h-1.047v-3.366c0-0.413-0.013-0.863-0.039-1.348h0.921l0.049,0.728
		h0.029c0.123-0.227,0.304-0.414,0.543-0.562c0.285-0.175,0.602-0.263,0.951-0.263c0.439,0,0.805,0.143,1.096,0.427
		c0.362,0.35,0.543,0.87,0.543,1.562V13.433z"/>
</g>
</svg>
